Added Component: Designator=SLOT(HDR1X3_LGE1.0)
Added Pin To Net: NetName=R2OUT Pin=RIBBON-2
Added Pin To Net: NetName=GND Pin=RIBBON-10
Added Pin To Net: NetName=GND Pin=SLOT-1
Added Pin To Net: NetName=5V Pin=SLOT-2
Added Pin To Net: NetName=INT Pin=RIBBON-8
Added Pin To Net: NetName=INT Pin=SLOT-3
Added Net: Name=INT
Added Member To Class: ClassName=main Member=Component SLOT C-Hdr1x3
