Added Component: Designator=RIBBON(HDR2X5)
Added Pin To Net: NetName=NetSERIAL_1 Pin=RIBBON-1
Added Pin To Net: NetName=NetSERIAL_3 Pin=RIBBON-2
Added Pin To Net: NetName=NetSERIAL_5 Pin=RIBBON-3
Added Pin To Net: NetName=GND Pin=RIBBON-4
Added Pin To Net: NetName=INT Pin=RIBBON-8
Added Pin To Net: NetName=5V Pin=RIBBON-9
Added Pin To Net: NetName=GND Pin=RIBBON-10
Change Net Name : Old Net Name=NetSERIAL_1 New Net Name=T2OUT
Change Net Name : Old Net Name=NetSERIAL_3 New Net Name=R2IN
Change Net Name : Old Net Name=NetSERIAL_5 New Net Name=R1IN
Added Member To Class: ClassName=main Member=Component RIBBON Header 5X2
