Change Physical Footprint: Designator=C1 Old Footprint=Cap2.54mm_LGE1.0 New Footprint=Cap2.54mm_LGE1.0
Change Physical Footprint: Designator=C2 Old Footprint=Cap2.54mm_LGE1.0 New Footprint=Cap2.54mm_LGE1.0
Change Physical Footprint: Designator=C3 Old Footprint=Cap2.54mm_LGE1.0 New Footprint=Cap2.54mm_LGE1.0
Change Physical Footprint: Designator=C4 Old Footprint=Cap2.54mm_LGE1.0 New Footprint=Cap2.54mm_LGE1.0
Change Physical Footprint: Designator=C9 Old Footprint=Cap2.54mm_LGE1.0 New Footprint=Cap2.54mm_LGE1.0
