Change Physical Footprint: Designator=C1 Old Footprint=Cap2.54mm_LGE1.0 New Footprint=Cap2.54mm_LGE1.0
Change Physical Footprint: Designator=C5 Old Footprint=CapPol2mm_LGE1.0 New Footprint=CapPol2mm_LGE1.0
Change Physical Footprint: Designator=C6 Old Footprint=CapPol2mm_LGE1.0 New Footprint=CapPol2mm_LGE1.0
Change Physical Footprint: Designator=C7 Old Footprint=CapPol2mm_LGE1.0 New Footprint=CapPol2mm_LGE1.0
Change Physical Footprint: Designator=C8 Old Footprint=CapPol2mm_LGE1.0 New Footprint=CapPol2mm_LGE1.0
Change Physical Footprint: Designator=R1 Old Footprint=Res10mm_LGE1.0 New Footprint=Res10mm_LGE1.0
Change Physical Footprint: Designator=R2 Old Footprint=Res10mm_LGE1.0 New Footprint=Res10mm_LGE1.0
Change Physical Footprint: Designator=R3 Old Footprint=Res10mm_LGE1.0 New Footprint=Res10mm_LGE1.0
Change Physical Footprint: Designator=R4 Old Footprint=Res10mm_LGE1.0 New Footprint=Res10mm_LGE1.0
Change Physical Footprint: Designator=R5 Old Footprint=Res10mm_LGE1.0 New Footprint=Res10mm_LGE1.0
Change Physical Footprint: Designator=R6 Old Footprint=Res10mm_LGE1.0 New Footprint=Res10mm_LGE1.0
Change Physical Footprint: Designator=U1 Old Footprint=DIP8_LGE1.0 New Footprint=DIP8_LGE1.0
Change Physical Footprint: Designator=U7 Old Footprint=ATMEGA328 New Footprint=ATmega328
