Remove Pin=U2-2 From Net=D0
Remove Pin=U2-3 From Net=555_CLOCK
Remove Pin=U2-4 From Net=SEL1
Remove Pin=U2-5 From Net=_OE
Remove Pin=U2-7 From Net=D7
Remove Pin=U2-8 From Net=_RST
Remove Pin=U2-9 From Net=CHB
Remove Pin=U2-10 From Net=CHA
Remove Pin=U2-11 From Net=GND
Remove Pin=U2-13 From Net=D6
Remove Pin=U2-14 From Net=D5
Remove Pin=U2-15 From Net=D4
Remove Pin=U2-17 From Net=SEL2
Remove Pin=U2-18 From Net=D3
Remove Pin=U2-19 From Net=D2
Remove Pin=U2-20 From Net=D1
Remove Pin=U7-4 From Net=INT
Remove Pin=U7-5 From Net=PITCH+
Remove Pin=U7-6 From Net=DATA
Remove Pin=U7-11 From Net=PITCH-
Remove Pin=U7-12 From Net=YAW+
Remove Pin=U7-13 From Net=SELA
Remove Pin=U7-14 From Net=SELB
Remove Pin=U7-17 From Net=YAW-
Remove Pin=U7-23 From Net=POT
Remove Pin=U7-24 From Net=_RST
Remove Pin=U7-25 From Net=_OE
Remove Pin=U7-26 From Net=SEL2
Remove Pin=U7-27 From Net=SEL1
Remove Pin=U7-28 From Net=SELC
Change Component Designator: OldDesignator=SLOT_DETECTOR NewDesignator=SLOT
