Added Component: Designator=C1(Cap2.54mm_LGE1.0)
Added Component: Designator=C2(Cap2.54mm_LGE1.0)
Added Component: Designator=C3(Cap2.54mm_LGE1.0)
Added Component: Designator=C4(Cap2.54mm_LGE1.0)
Added Component: Designator=C5(CapPol2mm_LGE1.0)
Added Component: Designator=C6(CapPol2mm_LGE1.0)
Added Component: Designator=C7(CapPol2mm_LGE1.0)
Added Component: Designator=C8(CapPol2mm_LGE1.0)
Added Component: Designator=D1(DO-41)
Added Component: Designator=D2(LED_LGE1.0)
Added Component: Designator=MOTORS(HDR1X7_LGE1.0)
Added Component: Designator=POT(HDR1X3_LGE1.0)
Added Component: Designator=POWER(HDR1X3_LGE1.0)
Added Component: Designator=QUAD(HDR1X4_LGE1.0)
Added Component: Designator=R1(Res10mm_LGE1.0)
Added Component: Designator=R2(Res10mm_LGE1.0)
Added Component: Designator=R3(Res10mm_LGE1.0)
Added Component: Designator=R4(Res10mm_LGE1.0)
Added Component: Designator=R5(Res10mm_LGE1.0)
Added Component: Designator=R?(Res10mm_LGE1.0)
Added Component: Designator=SERIAL(HDR1X7_LGE1.0)
Added Component: Designator=SLOT_DETECTOR(HDR1X3_LGE1.0)
Added Component: Designator=U1(DIP8_LGE1.0)
Added Component: Designator=U3(PCBComponent_1 - duplicate2)
Added Component: Designator=U4(DIP16_LGE1.0)
Added Component: Designator=U5(TO220_XLGE1.2)
Added Component: Designator=U6(MAX-232)
Added Component: Designator=Y1(R38)
Added Pin To Net: NetName=GND Pin=C1-1
Added Pin To Net: NetName=NetC1_2 Pin=C1-2
Added Pin To Net: NetName=GND Pin=C2-1
Added Pin To Net: NetName=NetC2_2 Pin=C2-2
Added Pin To Net: NetName=NetC3_1 Pin=C3-1
Added Pin To Net: NetName=GND Pin=C3-2
Added Pin To Net: NetName=GND Pin=C4-1
Added Pin To Net: NetName=5V Pin=C4-2
Added Pin To Net: NetName=NetC5_1 Pin=C5-1
Added Pin To Net: NetName=NetC5_2 Pin=C5-2
Added Pin To Net: NetName=NetC6_1 Pin=C6-1
Added Pin To Net: NetName=NetC6_2 Pin=C6-2
Added Pin To Net: NetName=NetC7_1 Pin=C7-1
Added Pin To Net: NetName=GND Pin=C7-2
Added Pin To Net: NetName=NetC8_1 Pin=C8-1
Added Pin To Net: NetName=GND Pin=C8-2
Added Pin To Net: NetName=12V Pin=D1-1
Added Pin To Net: NetName=NetC3_1 Pin=D1-2
Added Pin To Net: NetName=NetD2_1 Pin=D2-1
Added Pin To Net: NetName=GND Pin=D2-2
Added Pin To Net: NetName=MOTOR_PITCH+ Pin=MOTORS-1
Added Pin To Net: NetName=MOTOR_PITCH- Pin=MOTORS-3
Added Pin To Net: NetName=MOTOR_YAW+ Pin=MOTORS-5
Added Pin To Net: NetName=MOTOR_YAW- Pin=MOTORS-7
Added Pin To Net: NetName=5V Pin=POT-1
Added Pin To Net: NetName=POT Pin=POT-2
Added Pin To Net: NetName=GND Pin=POT-3
Added Pin To Net: NetName=12V Pin=POWER-1
Added Pin To Net: NetName=GND Pin=POWER-3
Added Pin To Net: NetName=CHA Pin=QUAD-1
Added Pin To Net: NetName=CHB Pin=QUAD-2
Added Pin To Net: NetName=5V Pin=QUAD-3
Added Pin To Net: NetName=GND Pin=QUAD-4
Added Pin To Net: NetName=NetR1_1 Pin=R1-1
Added Pin To Net: NetName=NetR1_2 Pin=R1-2
Added Pin To Net: NetName=5V Pin=R2-1
Added Pin To Net: NetName=NetD2_1 Pin=R2-2
Added Pin To Net: NetName=NetR3_1 Pin=R3-1
Added Pin To Net: NetName=NetR3_2 Pin=R3-2
Added Pin To Net: NetName=NetR4_1 Pin=R4-1
Added Pin To Net: NetName=NetR4_2 Pin=R4-2
Added Pin To Net: NetName=5V Pin=R5-1
Added Pin To Net: NetName=NetR5_2 Pin=R5-2
Added Pin To Net: NetName=NetC1_2 Pin=R?-1
Added Pin To Net: NetName=NetR1_1 Pin=R?-2
Added Pin To Net: NetName=NetSERIAL_1 Pin=SERIAL-1
Added Pin To Net: NetName=NetSERIAL_3 Pin=SERIAL-3
Added Pin To Net: NetName=NetSERIAL_5 Pin=SERIAL-5
Added Pin To Net: NetName=GND Pin=SERIAL-7
Added Pin To Net: NetName=INT Pin=SLOT_DETECTOR-1
Added Pin To Net: NetName=5V Pin=SLOT_DETECTOR-2
Added Pin To Net: NetName=GND Pin=SLOT_DETECTOR-3
Added Pin To Net: NetName=GND Pin=U1-1
Added Pin To Net: NetName=NetC1_2 Pin=U1-2
Added Pin To Net: NetName=555_CLOCK Pin=U1-3
Added Pin To Net: NetName=NetR1_2 Pin=U1-4
Added Pin To Net: NetName=NetC2_2 Pin=U1-5
Added Pin To Net: NetName=NetC1_2 Pin=U1-6
Added Pin To Net: NetName=NetR1_1 Pin=U1-7
Added Pin To Net: NetName=5V Pin=U1-8
Added Pin To Net: NetName=GND Pin=U3-1
Added Pin To Net: NetName=MOTOR_PITCH+ Pin=U3-2
Added Pin To Net: NetName=MOTOR_PITCH- Pin=U3-3
Added Pin To Net: NetName=12V Pin=U3-4
Added Pin To Net: NetName=PITCH+ Pin=U3-5
Added Pin To Net: NetName=5V Pin=U3-6
Added Pin To Net: NetName=PITCH- Pin=U3-7
Added Pin To Net: NetName=GND Pin=U3-8
Added Pin To Net: NetName=5V Pin=U3-9
Added Pin To Net: NetName=YAW+ Pin=U3-10
Added Pin To Net: NetName=5V Pin=U3-11
Added Pin To Net: NetName=YAW- Pin=U3-12
Added Pin To Net: NetName=MOTOR_YAW+ Pin=U3-13
Added Pin To Net: NetName=MOTOR_YAW- Pin=U3-14
Added Pin To Net: NetName=GND Pin=U3-15
Added Pin To Net: NetName=D3 Pin=U4-1
Added Pin To Net: NetName=D2 Pin=U4-2
Added Pin To Net: NetName=D1 Pin=U4-3
Added Pin To Net: NetName=D0 Pin=U4-4
Added Pin To Net: NetName=DATA Pin=U4-5
Added Pin To Net: NetName=GND Pin=U4-7
Added Pin To Net: NetName=GND Pin=U4-8
Added Pin To Net: NetName=SELC Pin=U4-9
Added Pin To Net: NetName=SELB Pin=U4-10
Added Pin To Net: NetName=SELA Pin=U4-11
Added Pin To Net: NetName=D7 Pin=U4-12
Added Pin To Net: NetName=D6 Pin=U4-13
Added Pin To Net: NetName=D5 Pin=U4-14
Added Pin To Net: NetName=D4 Pin=U4-15
Added Pin To Net: NetName=5V Pin=U4-16
Added Pin To Net: NetName=NetC3_1 Pin=U5-1
Added Pin To Net: NetName=5V Pin=U5-2
Added Pin To Net: NetName=GND Pin=U5-3
Added Pin To Net: NetName=NetC5_1 Pin=U6-1
Added Pin To Net: NetName=NetC8_1 Pin=U6-2
Added Pin To Net: NetName=NetC5_2 Pin=U6-3
Added Pin To Net: NetName=NetC6_1 Pin=U6-4
Added Pin To Net: NetName=NetC6_2 Pin=U6-5
Added Pin To Net: NetName=NetC7_1 Pin=U6-6
Added Pin To Net: NetName=NetSERIAL_1 Pin=U6-7
Added Pin To Net: NetName=NetSERIAL_3 Pin=U6-8
Added Pin To Net: NetName=NetR3_2 Pin=U6-9
Added Pin To Net: NetName=NetR4_2 Pin=U6-10
Added Pin To Net: NetName=NetSERIAL_5 Pin=U6-13
Added Pin To Net: NetName=GND Pin=U6-15
Added Pin To Net: NetName=5V Pin=U6-16
Added Pin To Net: NetName=NetU7_10 Pin=Y1-1
Added Pin To Net: NetName=NetU7_9 Pin=Y1-2
Added Member To Class: ClassName=main Member=Component C1 
Added Member To Class: ClassName=main Member=Component C2 
Added Member To Class: ClassName=main Member=Component C3 G-Cap
Added Member To Class: ClassName=main Member=Component C4 G-Cap
Added Member To Class: ClassName=main Member=Component C5 
Added Member To Class: ClassName=main Member=Component C6 
Added Member To Class: ClassName=main Member=Component C7 
Added Member To Class: ClassName=main Member=Component C8 
Added Member To Class: ClassName=main Member=Component D1 Diode 1N4004
Added Member To Class: ClassName=main Member=Component D2 G-LED
Added Member To Class: ClassName=main Member=Component MOTORS C-Hdr1x7
Added Member To Class: ClassName=main Member=Component POT C-Hdr1x3
Added Member To Class: ClassName=main Member=Component POWER C-Hdr1x3
Added Member To Class: ClassName=main Member=Component QUAD C-Hdr1x4
Added Member To Class: ClassName=main Member=Component R1 
Added Member To Class: ClassName=main Member=Component R2 G-Res
Added Member To Class: ClassName=main Member=Component R3 G-Res
Added Member To Class: ClassName=main Member=Component R4 G-Res
Added Member To Class: ClassName=main Member=Component R5 G-Res
Added Member To Class: ClassName=main Member=Component R? 
Added Member To Class: ClassName=main Member=Component SERIAL C-Hdr1x7
Added Member To Class: ClassName=main Member=Component SLOT_DETECTOR C-Hdr1x3
Added Member To Class: ClassName=main Member=Component U1 A-555
Added Member To Class: ClassName=main Member=Component U3 L298N
Added Member To Class: ClassName=main Member=Component U4 D-Mux
Added Member To Class: ClassName=main Member=Component U5 P-VReg5
Added Member To Class: ClassName=main Member=Component U6 MAX-232
Added Member To Class: ClassName=main Member=Component Y1 XTAL
Added Room: Name=main
